<?xml version="1.0" encoding="UTF-8" standalone="no"?>
<!-- Caubi Karman (C) 2020 -->
<svg xmlns="http://www.w3.org/2000/svg" viewBox="0 0 300 410.77">
  <path fill="#0d1928"
        d="M239.623 270.571c-.617-.036-1.157.259-2.174.985l-1.803
           1.28.465 3.837c.581 4.768.755 22.154.174 22.154-.174
           0-.698-.872-1.105-1.86-.407-1.047-.93-2.443-1.163-3.082
           -.29-.64-.93-2.442-1.512-4.07-.523-1.57-1.57-4.245
           -2.325-5.931-.756-1.629-1.396-3.372-1.396-3.838
           0-.465-.407-1.163-.872-1.57-.465-.407-.872-1.221-.872
           -1.803
           0-1.453-4.07-5.175-5.64-5.175-.756
           0-1.337.233-1.337.465 0 .291-.64.814-1.454
           1.163l-1.396.64v9.77c.422 14.881.668 14.67 1.337
           25.642.582 8.78 1.105 13.84 1.628 14.828.291.581
           1.163.987 2.21.987 1.046 0 1.92-.407
           2.21-.988s.465-8.722.29-18.49c-.174-14.538-.057
           -17.27.582-16.282
           1.047 1.628 3.198 7.21 3.547 9.245.175.93.524
           1.861.814 2.036.291.174 1.28 2.965 2.152 6.163s1.802
           6.338 2.035 6.978c.93 2.384 1.628 4.71 1.977 6.513.174
           1.046.698 2.79 1.163 3.896.756 1.86 1.104 2.092 3.081
           2.092 1.512 0 2.442-.348
           2.85-.988.639-1.105.58-11.455-.117-20.352.037-5.524
           -.105-9.541-.116-14.71
           0-4.013-.059-9.77-.117-12.851-.116-5.466-.174-5.524
           -1.802-6.28-.545-.24-.943-.382-1.314-.404zm-70.393
           1.865c-.525-.006-.97.312-1.733 1.04-1.454 1.278-1.453
           1.395-1.627 12.617-.233 17.735.29 37.738.988
           38.26.582.524 2.21 1.047 3.605 1.164.407 0 1.163-.582
           1.686-1.396.581-.872.814-2.035.581-3.023-.174-.873-.465
           -5.873-.64-11.048-.348-10.758-.93-9.71
           5.467-9.536 5.93.174 5.93.116 5.698 13.025-.175
           10.524-.175 10.815.988 11.106 2.21.581 3.838.348
           3.896-.524.058-.465.175-1.57.233-2.442.058-.93.232
           -3.024.29-4.652.117-1.686.35-3.081.582-3.081.175
           0 .175-1.396
           0-3.024-.233-1.745-.058-5.64.349-8.955.698-5.582.988
           -13.14.872-22.793-.058-3.78-.174-4.36-1.22-4.593-.64
           -.175-1.164-.524-1.164-.814
           0-.815-2.5-.583-3.663.348-1.047.756-1.047 1.454-.698
           10.292l.349
           9.478h-5.64l-5.699-.058-.464-1.977c-.291-1.105-.466
           -5.408-.408-9.595.058-9.478.175-8.721-1.512-9.477-.457
           -.218-.801-.338-1.116-.342zm-68.84.14c-1.811.05-3.505
           1.26-4.704 3.458l-.698
           1.337-1.86-1.86c-1.396-1.338-2.443-1.861-4.188-1.978
           -2.151-.174-2.441
           0-3.604 1.977-.93 1.57-1.337 3.722-1.744 8.49-.582
           7.792-.64 39.133-.06 40.586.524 1.222 2.966 1.28
           4.187.059.524-.466.989-1.86.989-3.023.058-1.163.174
           -7.618.29-14.363.117-6.687.35-12.85.466-13.665.174
           -.814.29-1.802.29-2.268.117-1.453.64-.349
           1.512 3.082.466 1.86.756 3.896.582 4.594-.523 2.035
           1.744 4.128 4.012 3.663 2.791-.581 3.606-1.686
           2.85-4.07-.407-1.28-.466-2.966-.117-4.768.29-1.57.64
           -4.012.814-5.466.116-1.454.349-3.14.523-3.78.117
           -.64.291-1.686.291-2.267.058-.698.233-.93.581-.582.989
           1.105 1.63 9.478 1.397 19.13-.117 5.466-.234 12.85-.35
           16.514l-.116 6.571 2.035.698c1.396.465 2.5.523
           3.664.116l1.57-.582v-16.63c0-9.129-.291-18.549-.64
           -20.933-.872-6.221-3.314-12.21-5.466-13.373-.836-.473
           -1.684-.69-2.506-.667zm101.849.425c-1.787.07-2.528
           1.179-2.528 3.498 0 1.57.29 2.151 1.337 2.5 1.745.698
           3.78.407
           4.884-.64.989-1.046.582-4.477-.581-4.826-1.272-.381-2.3
           -.564-3.112-.532zm56.959.133c-1.676
           0-3.702.727-5.702 2.086-1.918 1.279-3.43 2.674-2.965
           2.674.174 0-.058.873-.523 1.92-.407 1.046-.873
           3.488-.93 5.407-.117 1.86-.408 3.722-.698
           4.129-.698.93-.582 12.734.174 15.292.29 1.105.581
           3.721.581 5.815 0 5.698 2.036 12.21 3.838 12.21.35 0
           1.221.698 2.035 1.512 1.745 1.92 3.14 2.5 6.106 2.5
           1.512.059 2.675-.29 3.198-.871.407-.466 1.454-1.28
           2.384-1.745 1.512-.814 2.616-2.616
           4.535-7.675.989-2.5.989-10.757.058-14.246-.872-3.256
           -1.453-3.547-7.384-4.129-4.361-.407-4.943-.174-5.699
           2.326-.29.989-.058 1.396 1.221 1.86.93.35 2.268.7
           3.082.815 3.896.466 4.129 13.898.291
           16.398-1.337.872-1.628.872-3.721-.058-1.28-.524-2.617
           -1.513-2.908-2.21-.349-.64-.93-3.664-1.279-6.687-.349
           -3.024-.698-6.28-.814-7.269-.872-7.559-.174-19.13
           1.395-23.084.524-1.454.93-1.628 3.082-1.628 2.21 0
           2.791.291 4.826 2.443 1.745 1.918 2.268 2.906 2.326
           4.535 0 1.86.175 2.035 1.92 2.21 2.268.232 4.186-1.164
           4.186-3.025-.058-3.372-2.674-7.616-5.35-8.663-.58-.174
           -1.046-.64-1.046-.989
           0-.29-.581-.581-1.279-.581-.756
           0-2.035-.35-2.907-.814-.582-.31-1.271-.459-2.033-.458zm
           -139.29.204c-1.541.02-2.664.152-2.94.428-.35.349
           -1.629.64-2.792.64-2.965
           0-3.43 1.395-3.314 11.338.058 4.478-.116 14.304-.349
           21.864.014 5.767-.228 16.576.825 18.147 1.076.925
           7.369.834 9.874.983 9.594.523 10.176.407 12.502-1.918
           1.802-1.803 2.035-2.269
           1.453-3.315-.756-1.396-3.256-2.558-4.244-1.919-.814.524
           -11.28.872-13.025.465-1.337-.29-1.337-.465-1.337-9.071v
           -8.78l1.919.465c.988.174
           3.895.465 6.337.523 4.245.058 4.594 0 6.047-1.511
           1.222-1.28
           1.396-1.802.873-2.733-3.204-3.63-15.292-.01-15.177
           -3.547.135-3.125.388-5.27.175-7.966-.232-3.14-.058
           -4.594.698-6.048l.93-1.86
           6.687.407c5.93.407 6.803.29 7.791-.582 1.222-1.105
           1.512-2.965.698-4.187-.61-.959-9.005-1.886-13.63
           -1.823zm-77.317.12c-.579.021-.895.134-.75.366.233.349
           -.522.582-1.86.582-2.384.058-5.99
           1.744-8.839 4.128-4.012 3.547-5.35 13.49-2.326 17.095
           3.373 3.954 3.664 4.07 10.467 5.466 3.663.698 7.21
           1.686 7.85 2.093 1.686 1.105 2.035 3.49 1.628
           10.816l-.407
           6.28-1.745.64c-.93.29-2.325.58-3.081.58-.756
           0-1.512.291-1.687.582-.232.349-.697.407-1.046.175-.35
           -.233-1.511-.466-2.558-.582-1.105-.116-2.966-.756-4.187
           -1.395-3.198-1.629-5.873-.466-5.873
           2.674 0 .407 1.105 1.628 2.5 2.617l2.443 1.861
           7.268-.29c5.699-.175 7.734-.466 9.304-1.338
           4.245-2.268 4.825-3.256
           5.057-8.199.117-2.5.234-6.454.175-8.722
           0-2.326.176-4.245.466-4.245.233 0 .524 1.919.582
           4.245.116 5.873 2.906 11.687 6.918 14.42 1.512 1.047
           2.909 2.094 2.967 2.385.349.814 5.698.523
           7.442-.408.93-.465 2.093-.872 2.558-.872 1.803 0
           3.606-4.245 5.001-11.63-1.13-4.57
           1.262-15.046-.233-21.514-.348
           0-.872-1.22-1.22-2.733-.931-3.896-.873-3.721-1.978
           -5.814-.581-1.047-1.22-1.92-1.511-1.92s-.64-.755-.814
           -1.627c-.408-1.86-4.594-5.059-6.513-4.884-.581
           0-1.395-.175-1.744-.466-1.047-.872-7.152 1.163-9.013
           2.966-2.093 2.093-2.442 4.186-2.617 14.769-.116
           6.978-.349 8.664-.93
           8.548-.465-.116-.93-.407-1.105-.698-.174-.233-1.104-.64
           -2.15-.814-.99-.233-2.152-.814-2.56-1.28-.348-.465
           -1.337-.814-2.21-.814-.813
           0-2.79-.407-4.419-.93-1.57-.523-3.314-.988-3.78-1.047
           -1.57-.232-3.197-1.104-4.185-2.267-1.86-2.093-.989
           -9.653
           1.28-11.165 2.732-1.802 9.01-2.964 10.29-1.918.988.814
           3.548.698 4.711-.232
           1.105-.93.813-2.966-.64-4.013-1.091-.785-5.19-1.537
           -6.925-1.472zm100.76.864c-5.211-.01-5.058.273-5.625
           1.537-.93 1.977.524 3.664 3.257 3.664 1.104 0 2.674.29
           3.488.581 1.222.465 1.454.93 1.512 3.082.116 2.384.582
           8.78 1.28 15.35.29 3.082.29 7.56.116 17.968-.116 5.524
           0 6.513.93 7.153 1.453 1.046 2.966.93
           4.187-.291.872-.872.988-2.327.872-14.072-.058-7.21-.35
           -14.537-.698-16.281-.291-1.745-.582-5.292-.582-7.908l
           -.058-4.71
           4.128.058c3.315 0 4.245-.174
           4.652-.988.35-.523.989-.99 1.396-.99 1.22 0
           1.047-.988-.407-2.616-1.279-1.337-1.628-1.395-11.222
           -1.453-3.155-.044-5.489-.08-7.225-.084zm-78.232
           4.852c.605.027 1.338.346 2.482.93 1.454.698 2.267
           1.744 3.14 3.896.64 1.628 1.395 3.373 1.686
           3.896.29.582.523 1.396.523 1.861 0 .407.349 1.511.814
           2.383 1.221 2.326 1.221 21.457.058
           23.783-.465.872-.872 2.093-.872 2.674 0 2.384-5.408
           2.443-7.617.117-1.803-1.86-2.966-4.71-3.198-7.618-1.047
           -12.792-1.221-15.525-.989-15.874.117-.232.233-3.314.233
           -6.744.058-5.931.174-6.455
           1.453-7.909.949-.981 1.512-1.429 2.287-1.395zm138.538
           2.928a5.197 5.197 0 00-1.387.27l-1.63.523-.173
           19.13c-.233 19.77-.058 21.398 2.093 21.98s2.966.349
           3.838-1.28c.698-1.395.755-2.907.348-8.605-.232-3.78
           -.232-7.152
           0-7.443.524-.698.64-16.688.175-20.7-.33-2.646-1.429
           -3.947-3.264-3.875zm49.22
           68.122c-.539-.012-1.034.1-1.416.354-.756.465-.872
           2.85-.872 15.7 0 8.315.175 15.118.466 15.118.232 0
           .407 1.744.407 3.838 0 3.14-.117 3.663-.757
           3.023-.407-.407-1.104-2.325-1.511-4.244-.64-3.082-2.036
           -6.804-3.605-9.71-.291-.582-.524-2.036-.524-3.199
           0-1.28-.523-2.791-1.163-3.663-.64-.814-1.163-2.093
           -1.163-2.79
           0-.757-.349-2.21-.814-3.199-.465-1.046-1.395-3.082
           -2.035-4.535-1.395-3.14-2.035-3.722-4.594-4.304-2.616
           -.523-2.964.814-2.267
           8.432.291 3.081.465 17.211.465 34.83-.058 10.815.058
           11.106 2.85 11.106 1.22 0 2.5-.349
           2.848-.756.35-.465.582-2.674.582-5.117-.233-11.513.233
           -24.596.814-23.2.291.813.93
           2.268 1.337 3.314.465.989.814 2.85.814 4.187.848 2.56
           1.748 5.728 2.733 7.907.407.29 1.105 1.86 1.57 3.43
           1.816 6.416.226 2.924 2.384 8.141 1.163 2.792 2.094
           3.896 3.083 3.547a20.109 20.109 0
           012.151-.64c2.21-.523 2.21-.406
           2.558-20.583.117-5.64.175-5.99.93-4.594.466.872 2.035
           5.292 3.547 9.885s3.024 8.722 3.315 9.187c.35.407.697
           1.105.756 1.454.116.814 2.965 3.838 3.546 3.838.233 0
           .815.407 1.396.93.93.872 1.163.872 2.384 0 .698-.523
           1.744-.93 2.268-.93 1.22 0 6.745-5.873 7.21-7.618
           1.337-5.698 1.628-7.908
           1.86-13.14.291-7.037-.348-8.316-4.128-8.316-1.279
           0-3.14-.29-4.128-.64-1.512-.58-2.093-.523-3.373.35
           -1.802
           1.162-2.616 3.488-1.744 4.884.407.64 1.57.93 3.605.988
           1.686.058 3.14.234 3.256.35.117.116.35 1.802.466
           3.72.349 5.001-.989 10.06-3.198 11.804-.93.756-1.803
           1.222-1.919
           1.105-.174-.174-.465-1.57-.64-3.14-.232-1.57-.755-3.256
           -1.162-3.721-.698-.872-1.629-4.187-2.326-8.431-.175
           -1.105-.698-2.733-1.163-3.663-1.28-2.442-1.048
           -9.653.406-13.49
           3.547-9.362 6.862-13.84 8.84-11.804.697.64 3.545.698
           4.301.058.407-.349.756-1.337.756-2.268
           0-1.918-.698-2.21-6.338-2.5-3.314-.175-6.454.523-6.454
           1.453 0 .175-.523.989-1.221 1.745-2.908 3.372-7.617
           15.932-7.501 19.944.174 4.71 0 8.49-.465 8.49-.233
           0-1.163-1.105-2.035-2.443-1.57-2.442-1.629-2.733-1.629
           -10.35.059-4.303.059-8.373
           0-9.013
           0-.64.175-2.733.35-4.651.348-2.908.232-3.722-.64-4.768
           -.88-1.04-2.281-1.666-3.468-1.693zm-68.851.363c-1.353
           -.006-2.549.278-3.388.863-.93.698-1.57.756-2.384.291
           -1.337-.698-4.012.117-4.419
           1.28-.116.407-.349 2.209-.523 3.953-1.105 10.932-1.57
           15.235-2.152 18.607a167.29 167.29 0 00-.814 5.524c-.64
           5.757-.988 7.85-1.453
           7.85s-2.268-4.245-3.49-8.257c-.348-1.22-.988-2.267
           -1.337-2.267a38.396
           38.396 0 00-1.976-.233c-1.628-.174-3.663 1.222-3.663
           2.443 0 .756-1.745 6.396-2.152
           7.094-.465.697-.814-1.047-1.686-8.14-1.163-10.06-1.163
           -10.06-1.92-11.456-.348-.64-.639-2.326-.639-3.721
           0-1.396-.523-3.897-1.221-5.641-.64-1.745-1.047-3.722
           -.872-4.42.232-.93-.058-1.453-1.047-2.034-2.791-1.454
           -6.454
           1.628-4.477 3.78.232.348 1.046 4.883 1.744 10.175s1.57
           10.64 1.919 11.92c.349 1.28.698 3.78.814 5.524.116
           1.744.756 5.291 1.396 7.792.64 2.558 1.337 7.21 1.57
           10.292l.349 5.698 1.803.233c1.744.174 4.419-.117
           4.942-.524.174-.116.232-1.57.174-3.14
           0-1.628.29-3.779.698-4.825.407-.989.64-2.21.524-2.559
           -.175-.407
           0-.756.348-.756s.64-.524.64-1.163.407-1.163.872
           -1.163c1.512
           0 2.791 2.907 4.943 11.222.698 2.734.756 2.733 3.14
           2.733 3.198 0 3.663-.872 3.78-7.268.057-2.908.58-7.152
           1.162-9.594.64-2.384 1.337-6.571
           1.57-9.304.523-7.036.872-9.652 1.686-13.316.93-3.954
           1.628.059 1.802 10.35.524 26.457.64 27.388 3.431
           27.388 2.733 0 3.024-1.221
           2.85-12.037-.059-5.524.057-10.06.29-10.06.64 0 2.384
           3.315 2.384 4.595 0 .697.466 1.686 1.047 2.267 1.221
           1.221 2.674 4.303 4.303 9.071.64 1.92 1.686 4.187 2.21
           5 .58.815 1.046 1.745 1.104 2.036 0 .349.93.64
           1.978.756 1.686.174 2.035-.058
           2.384-1.163.64-2.5.348-5.407-.814-7.617-.64-1.163-1.163
           -2.675-1.163-3.257
           0-.64-.233-1.337-.582-1.511-.29-.175-1.629-2.5-2.85
           -5.117-1.744-3.663-2.093-4.826-1.453-4.942.465-.116.814
           -.756.814-1.396
           0-.64.465-1.512.988-1.92 1.338-.988 2.035-9.128
           1.28-14.536-.466-3.14-1.105-4.826-2.733-7.268-1.163
           -1.745-2.675-3.664-3.315-4.187-.64-.581-.872-1.047-.581
           -1.047.349
           0-.698-.64-2.268-1.453-1.832-.949-3.828-1.436-5.567
           -1.445zm-111.984.617c-.822.029-1.709.363-2.464
           1.003-1.047.93-1.163 1.395-.698 3.43.698 2.966.872
           20.584.29 28.666-.232 3.373-.407 6.397-.348 6.687 0
           .35.058 3.49.058 6.978.058 3.547.349 7.094.64
           7.908.639 1.686 3.197 2.617 4.36
           1.628.407-.349.757-5.756.99-15.758.174-8.431.465
           -15.758.697-16.28.524-1.396
           1.454-1.338 1.454.057 0 .64.233 1.28.581
           1.512.291.174.988 1.919 1.512 3.838.523 1.919 1.22
           3.605 1.453 3.78.291.174.524.93.524 1.744 0 .756.232
           1.86.523 2.442 1.163 2.093 4.477 13.78 4.826
           16.979.233 1.919 1.454 2.849 3.78 2.907 1.57 0
           1.919-.29
           2.5-2.035.349-1.105.523-2.21.407-2.442-.174-.29-.465
           -4.652-.64-9.769a3655.84
           3655.84 0
           01-.64-14.537c-.29-5.756-.464-24.654-.29-25.584.058
           -.291.29.058.523.814.524
           1.86 4.594 4.244 5.99 3.489 1.104-.582 3.43-.698
           4.71-.175.698.233.756.698.349 2.152-.349 1.22-.292
           3.081.173 5.35.407 2.034.699 10.407.757 20.35.174
           21.282.116 20.41 1.22 21.457.931.988 3.548 1.221
           4.77.466.406-.291.755-1.28.755-2.21.058-1.744
           0-29.656-.058-32.214v-4.244c.058-1.57-.233-3.14-.524
           -3.548-.349-.407-.58-2.151-.464-3.896l.116-3.14
           3.489-.058c5.175-.058 5.291-.116
           5.989-1.686.872-1.919.872-2.617.058-2.617-.407
           0-.989-.407-1.338-.872-.465-.581-1.919-.872-4.884-.988
           -2.326-.058-4.361-.291-4.536-.524-.174-.29-.93-.173
           -1.744.175-1.105.524-2.442.524-5.524
           0-4.884-.814-7.675-.872-8.431-.174-.291.349-1.803.64
           -3.373.756-2.617.174-2.907.349-3.314
           1.802-.233.93-.407 6.92-.349 13.257.117 9.478 0
           11.397-.64
           10.583-.407-.581-.988-2.093-1.337-3.372-.348-1.28-.814
           -2.443-1.047-2.617-.232-.174-.872-1.512-1.453-3.024
           -.582-1.57-1.28-2.79-1.57-2.79s-.524-.408-.524-.873c0
           -.523-.407-1.512-.872-2.268-.465-.697-1.512-3.488-2.268
           -6.105-.756-2.559-1.686-5.117-2.093-5.582-.494-.582
           -1.25-.857-2.071-.828zm-32.025.13c-2.47.13-3.845
           3.125-4.862 10.35-.35 2.268-.93 5.699-1.396
           7.676-1.686 7.442-2.093 9.885-2.093 13.083 0 4.244-.93
           5.93-1.454
           2.674-.581-3.314-1.512-5.465-2.384-5.465-.465
           0-.814-.465-.814-1.046
           0-.873-.465-1.048-2.326-.99-2.326.059-5.116 1.92-5.058
           3.373.058 1.28-1.571 6.222-2.095 6.222-.232
           0-.347-.232-.173-.465.116-.232-.116-2.152-.581-4.187
           -.466-2.093-1.105-6.105-1.454-9.013-.29-2.849-.698
           -6.396-.872-7.791-.117-1.396-.465-2.85-.64-3.199-.232
           -.29-.524-2.325-.64-4.419-.291-4.477-.755-5.233-3.43
           -5.233-2.791
           0-3.14 1.396-1.861 7.501.581 2.733 1.046 6.222 1.104
           7.734 0 1.512.407 4.419.873 6.57.523 2.093.814
           4.012.64 4.303-.233.349 1.395 12.443 2.79 20.991.175
           1.105.465 3.314.582 4.884.174 1.57.64 3.082 1.046
           3.315.873.581 3.14.64 4.943.174 1.046-.29 1.28-.756
           1.222-2.21-.175-2.325 1.336-12.094
           1.918-12.908.29-.349.582-1.162.698-1.86.116-.698.348
           -1.396.522-1.57.524-.524
           1.57 2.674 1.92 5.698.174 1.512.756 3.43 1.279
           4.245.523.814 1.163 2.79 1.395 4.477.64 3.954 1.454
           4.652 4.652
           4.186l2.559-.407.058-4.418c0-2.442.233-6.455.407
           -8.84.233-2.383.581-6.512.756-9.128.232-2.675.64
           -4.826.872-4.826.29
           0
           .407-.581.233-1.337-.175-.698-.059-2.501.29-3.897.407
           -1.453.93-4.07
           1.163-5.814.64-4.129 1.396-7.676 2.442-11.455
           1.163-4.07.757-6.396-1.104-6.862a3.995 3.995 0
           00-1.128-.116zm176.743.136a12.1 12.1 0
           00-.65.01c-1.034.045-2.023.225-2.677.552-.93.465
           -2.035.872-2.442.872-.465
           0-.814.291-.814.698 0 .35-.58 1.28-1.279 2.036-1.279
           1.395-2.674 5.233-3.081 8.78-.117 1.046-.407
           2.151-.582 2.384-.349.581-.349 17.269 0 20.467.233
           2.268 2.326 9.478 3.198 11.048.29.523.756 1.977 1.105
           3.314.407 1.338 1.221 2.733 2.093 3.256.814.524 1.454
           1.338 1.454 1.803 0 1.28 2.965 1.512 8.489.64
           1.57-.233 4.71-3.315 6.163-5.931.814-1.57 1.687-4.42
           1.92-6.338.232-1.92.639-3.78.93-4.129.523-.64.697
           -18.956.232-21.747-.814-4.768-2.5-9.128-4.245-10.93
           -.348-.466-.988-1.338-1.337-1.978-1.047-1.977-2.5-3.373
           -3.43-3.373-.524
           0-1.164-.233-1.512-.581-.54-.541-2.02-.838-3.536-.853zm
           -164.372.388c-2.785.015-5.691.233-6.186.64-2.151
           1.802-2.21 2.557-1.977 27.212.175 13.257.291
           25.062.233 26.225-.058 1.511.29 2.5 1.163 3.198 1.396
           1.22 3.43 1.86 4.652 1.57.523-.117 1.77-.005
           3.107-.121 1.337-.117 2.373-.29 2.998-.054.83.231
           3.257-.524 4.245-1.745
           1.105-1.337.873-3.779-.465-4.593-.93-.523-2.036-.582
           -4.827-.117-3.024.466-3.72.407-4.244-.348-.465-.582-.64
           -4.012-.581-10.292l.058-9.42h2.617c1.453
           0 3.198.175 3.954.407.872.291 1.802.175 2.733-.465
           2.093-1.395
           2.384-3.024.814-4.477-1.28-1.163-2.675-1.454-8.2-1.513
           -1.395-.058-1.57-.29-1.86-3.081-.233-1.687-.466-6.222
           -.524-10.06l-.116-6.977
           1.454.174c10.06 1.047 10.466.93 10.815-3.082.116-1.919
           0-2.035-1.686-2.093-1.047-.058-2.035-.058-2.267 0-.291
           0-.466-.174-.466-.407
           0-.407-2.661-.596-5.444-.581zm133.252
           6.164l1.336.406c1.396.465 2.791 1.86 2.85 2.85 0
           .29.465 1.046.988 1.628 2.151 2.384 3.082 9.478 1.803
           13.083-.756 2.093-.873 2.093-4.129
           1.104l-2.267-.698-.29-9.187zm31.629.272c1.403.041
           2.822.723 3.142 1.762.232.698.64 1.454.989
           1.687.349.174 1.105 1.628 1.744 3.198.93 2.326 1.163
           4.652 1.395 13.49.291 9.653.175 11.222-.988
           16.106-.872 3.547-1.628 5.466-2.093 5.466-.466
           0-.815.29-.815.582 0
           .814-4.419.697-5.116-.117-.582-.756-2.617-7.443-3.606
           -11.804-.756-3.256-.697-17.967.059-22.154.755-4.244
           1.977-6.977 3.488-7.85.527-.272 1.162-.385
           1.8-.366zm-38.209
           4.023c.038-.04.081.073.125.356.116.698.116 1.745 0
           2.326-.175.524-.29-.059-.232-1.338
           0-.8.045-1.28.108-1.344zm88.217 21.405c.35 0
           .524.174.291.349-.174.174 0 1.28.407 2.442.814 2.268
           1.57 6.512 1.221 6.512-.116
           0-.407-.232-.581-.581-.64-.989-2.035-6.105-2.035-7.385
           0-.756.29-1.337.697-1.337zM136.365 0L0 190.91l54.546
           54.547h190.91l54.546-54.546L163.638 0zm8.044
           27.273h11.132L272.73 190.91l-27.273
           27.273H54.546L27.273 190.91zm-8.044
           27.273v81.819h27.273V54.546zm0
           109.092v27.273h27.273v-27.273z"/>
</svg>
