<?xml version="1.0" encoding="UTF-8" standalone="no"?>
<!-- Edit the source code of the image and preview the results -->
<svg xmlns="http://www.w3.org/2000/svg" viewBox="0 0 300 97.538">
  <title>A simple SVG markup editor</title>
  <path fill="#0d1928" 
        d="M42.649
           0c-.68-.009-1.51.092-2.485.307-2.749.634-2.854.74-3.488
           3.013-1.586 5.55-4.123 13.055-5.867
           17.442-.317.74-1.058 3.014-1.745 5.128-1.057
           3.383-1.11 3.964-.476 5.391.581 1.321 1.058 1.638
           2.432 1.638 2.22 0 3.7-1.48 4.122-4.07.688-3.963
           1.428-5.444 2.59-5.18.635.159 3.12.37 5.55.529
           2.432.106 4.44.318 4.494.37 1.268 1.904 2.43 4.493
           2.748 5.92.211 1.163 1.107 2.743 1.572 3.043 1.493.574
           3.008.584 4.824.129 1.427-.37
           1.85-2.537.898-4.387-.423-.74-.74-1.64-.74-1.956
           0-.317-.422-.951-.95-1.48-.582-.475-1.27-1.798-1.64
           -2.96-2.121-4.619-4.696-9.09-6.237-13.848-.557-1.418
           -1.546-2.761-2.273-4.229-.581-1.216-1.057-2.643-1.057
           -3.171C44.921.575
           44.146.02 42.649 0zm66.32.571c-8.834.058-11.032
           1.632-13.254 5.131-.801 1.259-1.076 2.342-1.276
           3.232-.081.361-.202 1.152.01 2.685.422 3.277 2.642
           5.18 8.51 7.452 4.915 1.85 6.447 3.172 6.447 5.445 0
           1.163-.422 1.638-2.272 2.537-2.748 1.32-7.559
           1.48-9.144.317-.529-.423-1.375-.793-1.798-.793-1.321
           0-2.643 1.955-2.643 3.964 0 1.638.16 1.85 2.01 2.378
           1.057.265 2.325.793 2.748 1.058.95.634 7.505.264
           8.933-.529.58-.264 1.691-.529 2.537-.529 2.696-.052
           7.928-5.866
           7.241-8.086-.211-.634-.317-1.903-.317-2.855.053-1.268
           -.317-2.061-1.533-3.171-.899-.793-2.009-1.85-2.538
           -2.326-.95-.951-7.557-3.647-8.879-3.647-.476
           0-1.269-.37-1.797-.846-.74-.687-.846-1.11-.423-2.22
           1.11-2.854 2.22-3.382 7.242-3.223 3.802.054 5.222-.115
           8.086-.054 1.691 0 2.22-1.057
           1.745-3.488-.423-2.22-1.057-2.432-7.77-2.432-.654-.003
           -1.275-.003-1.864
           0zm24.963.634c-1.903 0-3.753 1.534-4.228 3.542-.476
           1.745-.054 2.38 1.955 3.12 2.114.792 4.705.475
           5.656-.741
           1.745-2.273-.317-5.92-3.383-5.92zm64.433.179c-.436-.033
           -.714.165-1.164.561-.528.476-1.056.688-1.215.53-.37
           -.318-6.502
           2.536-8.035 3.7-1.057.845-1.004 1.109.212 6.659.634
           2.907.9 5.973 1.164 12.95l.158
           5.233-1.744.37c-.951.212-1.903.475-2.062.687
           -.158.158.106
           4.652.582 9.937.475 5.339.845 11.629.845 14.06 0
           4.017.106 4.387 1.216 4.863 1.797.687 3.172.634
           4.493-.317.951-.687
           1.11-1.163.898-2.537-.423-2.22-.634-7.718-.264
           -7.718.158.053
           1.004 1.004 1.85 2.115 1.894 2.218 4.472 3.886 6.237
           5.55 3.647 3.488 4.652 3.911 7.612 3.118.846-.211
           1.268-.898
           1.532-2.114.317-1.639.106-2.009-1.955-3.912-2.282-1.791
           -4.314-3.236-6.555-4.967l-1.057-.793
           1.057-.318c3.224-1.057 3.436-1.268 3.436-3.33
           0-2.537-1.744-6.29-3.172-6.713-.58-.159-1.057-.634
           -1.057-.95
           0-.688-3.013-2.855-5.55-3.965-1.585-.74-1.585-.74-.422
           -1.269
           1.639-.793 2.06-3.489
           1.004-6.554-.899-2.696-1.11-4.916-.423-5.022
           5.815-.634 8.472-1.374 11.907-4.44.857-.774
           1.948-1.628
           2.523-2.748.687-1.797-.317-5.973-1.85-7.664-1.163-1.269
           -4.228-3.066-5.232-3.066-.317
           0-1.586-.529-2.855-1.11-1.083-.529-1.678-.793-2.114
           -.826zM172.241
           2.98c-1.375 0-2.05 1.555-2.578 4.885-.264 1.744-.74
           3.171-1.057 3.277-.264.106-.528.634-.528 1.162 0
           1.903-.952 1.587-2.062-.686a15.026 15.026 0
           01-1.11-3.119c-.093-.428-.475-1.427-1.11-2.22-.845-1.11
           -1.533-1.375-3.383-1.375-2.061
           0-2.326.159-3.118 1.85-.529 1.11-.899 3.013-.846
           4.652.053 1.48-.264 4.387-.74 6.448-.544 3.435-1.734
           7.059-3.013 9.99-.414.927-1.004 1.957-.898 2.802.159
           1.639 1.374 2.114 5.074 2.22 2.009.053 2.325-.106
           2.801-1.374.317-.846.634-2.538.793-3.86.106-1.32.476
           -3.487.793-4.862l.582-2.537
           1.48 1.586c2.06 2.22 4.915 2.22 7.294.053.899-.898
           1.691-1.956 1.691-2.432
           0-.529.37-.792.952-.687.634.106 1.11 1.11 1.638 3.33
           1.322 5.92 2.537 7.03 6.607 6.237 1.85-.37 2.168-.687
           2.326-1.902.159-1.48-1.243-4.004-1.585-4.6-.35-.605
           -1.533-3.751-3.489-13.953-.898-4.704-.9-4.757-2.696
           -5.233-.803-.146-2.413.296-3.818.348zm100.07.14c-1.122
           0-2.51.066-3.91.199-2.802.211-6.819.317-9.039.159-3.859
           -.212-4.018-.212-5.604
           1.374-1.85 1.797-2.114 3.647-.793 6.13.846 1.64 1.956
           12.793 1.85 18.554-.052 3.172-.168 3.761 1.64 4.123
           4.553.337 7.505-.53 11.522-.687 1.956-.106 4.229-2.432
           4.229-4.335
           0-.898-.317-1.902-.687-2.272-.793-.793-3.684-.979-4.438
           -.826-.557.075-1.535.403-3.861.614-1.163.159-1.32-.053
           -1.48-1.797-.443-2.457.262-2.009
           2.484-2.009 2.062 0 2.907-.264 3.753-1.162
           2.801-3.013-.582-6.66-5.497-5.867-1.533.211-1.797.105
           -2.06-.952-.952-3.489-.107-4.175
           4.65-3.858 1.163.053 2.537-.106 3.066-.423.74-.37
           1.162-.264 1.691.476.687.898.794.898 1.428.052.37-.475
           1.48-.951 2.484-1.057 1.48-.106 1.903-.475
           2.326-1.638.634-2.009.052-4.018-1.428-4.6-.344-.132
           -1.202-.198-2.325-.198zm-48.094.246c-.932-.052-1.815.53
           -2.648
           1.75-1.11 1.586-1.163 2.01-.635 4.335.318 1.427.582
           5.76.529 9.62 0 3.91.158 8.245.317 9.725.476 3.489
           1.48 3.858 10.307 3.805 3.957 0 6.689.225 8.986-2.114
           2.431-2.378
           2.749-4.387.899-5.602-1.533-1.005-3.242-1.241-4.335
           -1.11-1.905.189-3.974.712-5.655.898-2.242.196-3.462
           1.026-3.912-1.11-.158-.793-.317-3.489-.264-5.973.211
           -10.36.106-11.576-1.322-12.95-.786-.81-1.541-1.233
           -2.267-1.274zM197.92
           8.98c1.442-.008 3.143.11 4.814 1.455.34.245.498
           1.885.125 2.134-1.684 1.418-3.728 1.631-5.814
           1.428-.846-.105-1.48-.475-1.48-.793
           0-.37-.16-1.163-.318-1.797-.211-.793.053-1.374.952
           -1.955.479-.314
           1.065-.469 1.721-.472zm-62.242 2.466c-.423
           0-.9.198-1.745.595-2.008.951-2.009 1.004-1.216
           6.078.37 2.326.37 4.546.054 6.29-.265 1.48-.37
           3.278-.265 3.965.423 2.22 4.229 3.224 5.867
           1.533.846-.846.951-4.23.423-12.58-.106-.846-.158-2.22
           -.211-2.96-.053-.846-.635-1.745-1.48-2.326-.635-.397
           -1.004-.595-1.427-.595zm-94.337.116c.684.015
           2.66 4.344 2.312 5.236-.317.846-2.272
           1.058-3.382.318-.581-.37-.582-.846-.053-2.75.37
           -1.268.845-2.536
           1.004-2.747a.145.145 0 01.119-.057zm90.69
           19.772c-2.009 0-2.432.212-3.014 1.375-.433 1.98-.461
           3.952-1.003 5.655-.529 1.797-1.058 4.017-1.058
           4.862-.105 2.009-4.56 13.794-5.18 15.118-.66
           1.386-.257 2.663.476 3.118 2.877 1.786 3.859 1.956
           5.497.423.687-.634 1.215-1.533 1.215-2.009 0-2.008
           2.749-9.514 3.489-9.514.423 0 .74.212.74.476 0 .793
           2.009 1.27 3.912.9 1.427-.265 1.903-.794 3.171-3.331
           1.057-2.167 1.586-2.802 1.903-2.273.475.898 1.903
           7.612 2.378 11.206.37 2.854 1.957 5.18 3.542 5.18.582
           0 1.745-.423 2.643-.899 1.374-.846 1.533-1.163
           1.322-2.802-.265-1.955-4.705-20.085-6.026-24.684-.6
           -2.888-.888-2.801-3.648-2.801-2.22
           0-2.854.16-2.854.846 0 .423-.476 1.903-1.11 3.224-.581
           1.322-.951 2.695-.793 3.065.106.37-.105.846-.528
           1.005-.582.211-.74-.317-.74-2.748-.053-4.017-1.11-5.392
           -4.334-5.392zm30.233
           3.859c-.601 3.403-1.41 6.815-2.167 10.148-.211
           1.163-.793 3.435-1.268 5.021-1.639 5.603-2.379
           8.51-2.379 9.514 0 1.216 1.48 2.115 3.436 2.115 2.484
           0 3.277-.793 3.647-3.753.529-4.07.899-4.44 3.964-4.598
           2.22-.106 2.801.053 3.013.793 1.533 4.545 3.542 8.193
           5.075 8.985 2.797.873 4.153-1.448
           4.274-2.462.038-.643-1.13-4.521-2.002-6.365-1.055-2.176
           -2.348-5.373-3.171-7.665-1.489-4.874-4.059-9.994-5.55
           -14.06-.462-.894-1.48-1.532-4.282-1.532-2.158.079-2.185
           1.585-2.59
           3.859zm-148.422-.654c-1.66-.034-3.845.584-7.77
           1.922-4.27 2.246-6.047 4.976-4.915 8.774.634 2.167
           4.017 5.973 6.29 7.083.686.318 2.695.793 4.44 1.058
           2.59.317 3.171.633 3.33 1.479.264 2.22-7.347
           3.964-9.197
           2.114-1.058-1.057-2.59-1.003-4.493.107-2.749
           1.638-1.639 4.598 2.167 5.814 1.004.317 3.54.58
           5.602.634 3.383.053 4.177-.16 8.035-2.062 2.379-1.216
           4.334-2.43 4.334-2.8 0-.37.476-1.64 1.057-2.75
           1.586-3.066.9-4.704-3.065-7.505-.634-.476-2.96-1.005
           -5.233-1.216-3.028-.018-4.23-.378-5.874-2.338-.65-1.004
           -.839-2.42.324-3.265
           1.269-1.004 5.603-.952 6.448.053.952 1.163 4.388 1.005
           5.498-.21
           1.215-1.322.95-3.965-.424-4.23-.581-.105-1.955-.74
           -3.065-1.427-1.225-.786-2.198-1.208-3.49
           -1.235zm59.826.749a7.336
           7.336 0 00-.943.064c-2.168.264-6.924 3.593-8.14
           5.708-2.22 3.805-3.224 13.056-1.797 16.492.423.95 1.85
           2.484 3.171 3.435 2.75 1.956 5.603 2.537 10.783 2.167
           2.802-.211 3.277-.475 5.867-2.96 2.643-2.484
           2.907-2.96
           3.489-6.342.845-4.97.317-5.604-5.074-5.604-2.22
           0-3.86-.212-3.86-.529 0-1.48-4.598.582-5.285
           2.379-.317.793-.264 1.85.16 2.854.528 1.48.792 1.586
           3.646 1.745l3.065.158-1.268 1.48c-1.797 2.062-4.81
           2.009-7.03-.211-1.85-1.797-2.22-3.278-1.638-6.819.687
           -4.123.898-4.704
           2.59-6.607 1.32-1.48 2.008-1.85 3.594-1.85 2.061 0
           3.119.793 4.969 3.859.634.898 1.373 1.427 2.22
           1.427.74 0 2.06-.634 2.906-1.427 1.322-1.163
           1.533-1.692
           1.216-2.59-.634-1.639-2.907-4.123-4.651-5.127-1.665
           -.925-5.556-1.728-7.99-1.702zm192.857.36c-.917-.02
           -1.824.44-2.616
           1.447-.9 1.163-.847 2.167.369 4.546 1.322 2.643 1.374
           7.082.053 12.157-1.163 4.281-2.008 4.81-3.91
           2.273-1.322-1.797-2.697-7.4-2.433-10.254.211-2.802-.053
           -6.818-.529-7.558-.634-.952-4.492-.952-5.496
           0-.529.581-.688 2.219-.635 6.817.106 5.497.634 8.67
           1.903 11.207.264.528.476 1.426.476 2.008 0 .687.634
           1.48 1.585 2.009.846.475 1.586 1.163 1.586 1.533 0
           1.057 2.273 2.272 4.281 2.272 1.057 0 3.014-.158
           4.388-.317 6.166-1.799 7.096-16.594
           6.078-21.724-1.017-3.997-3.084-6.37-5.1-6.416zm
           -41.757.09c-1.932.193-4.132
           1.595-4.625 2.89.211.635.951 5.656 2.378 16.967.582
           4.44 1.322 5.286 4.335 5.339 2.96 0 3.805-2.432
           2.22-6.608-.318-.845-.107-.792.898.318 1.782 2.533
           3.95 4.844 5.392 7.189.793 1.268 1.74 2.086 2.59 2.43
           2.272.371 4.353-.469
           5.181-1.758.917-1.798-.712-4.115-1.164-4.743-2.94-1.684
           -3.84-4.152-6.079-6.66-1.78-2.134-2.625-3.348-.37-4.915
           2.325-1.586 3.383-3.594 3.383-6.29
           0-1.744-.211-2.167-1.163-2.431-3.171-.846-3.964-.424
           -5.973
           2.8-2.907 4.758-4.493 4.916-4.493.53
           0-1.534-.37-3.172-.845-3.965-.555-.833-.932-1.13-1.665
           -1.092zm-171.494.353c-2.114
           0-4.123 1.427-4.123 2.907 0 1.216-1.903 7.823-2.749
           9.568-.422.845-1.057 2.536-1.48 3.805-.37 1.216-.951
           2.22-1.321 2.22-.529
           0-2.643-5.815-4.546-12.686-.37-1.321-1.004-2.801-1.427
           -3.277-1.162-1.374-4.388-1.268-5.603.212-1.057
           1.163-1.057 1.215.952 6.765.475 1.321 1.796 5.233
           3.012 8.721 1.216 3.489 2.431 6.555 2.643
           6.872.264.264.476.845.476 1.321 0 .846 1.85 2.75 3.224
           3.33 1.057.476 4.388-.158 4.81-.845.265-.37.687-1.585
           1.004-2.695.317-1.163.899-2.59
           1.269-3.172.37-.634.951-2.062
           1.321-3.225.37-1.163.952-2.801 1.374-3.7.793-1.797
           3.172-8.562
           4.07-11.47.847-2.907-.21-4.651-2.906-4.651zm232.67
           1.122c-.718.016-1.425.08-2.109.2-1.903.316-2.325.634
           -3.012
           2.272-.793 1.903-.793 2.378.317 8.827.317 1.744.687
           4.599.792 6.343.423 4.493 1.163 7.717 1.956
           8.193.74.475 4.228.053
           4.968-.581.265-.265.424-1.269.371-2.167-.476-6.66-.581
           -6.502
           3.7-7.03 2.061-.265 2.537-.528 2.96-1.797.264-.793
           1.374-2.274 2.484-3.278 2.325-2.22
           2.22-3.436-.687-6.554-2.405-2.62-6.834-4.332-11.018
           -4.428a16.014
           16.014 0 00-.722 0zm-92.725 2.44c.257.006.654.191
           1.34.561.846.529 1.534 1.058 1.534 1.216 0
           .529-1.163.793-2.484.581-1.269-.211-1.428-.528-.9
           -1.85.133-.343.252-.515.51-.509zm94.524
           3.948c.235.016.546.075.956.154 1.955.476 3.857 2.062
           3.329 2.854-.159.318-1.374.582-2.696.582-2.326 0-2.326
           0-2.326-1.903 0-1.387.03-1.734.737-1.687zM167.419
           46.25c.098.023.13.287.13.836 0 .635-.211 1.163-.529
           1.163-.264 0-.528-.158-.528-.37
           0-.264.264-.793.528-1.216.159-.238.273-.378.353
           -.409a.076.076
           0 01.046-.004zM132.61 63.576c-1.269
           0-2.009.212-1.798.529.159.317.001.528-.422.528-1.268
           0-1.956 2.802-1.321 4.97.581 1.796 1.003 2.06 4.175
           2.378.475 0 1.269-.422 1.744-.951 1.11-1.216
           1.798-5.34.952-5.34-.317
           0-.74-.475-.899-1.057-.264-.845-.793-1.057-2.431
           -1.057zm-36.696.763a7.87
           7.87 0
           00-.475.002c-.737.027-1.362.161-1.838.399-1.374.74
           -2.431
           3.435-1.691 4.334.74 1.004 1.216 3.594 1.374 8.245.011
           5.45.625 11.443.665 16.492 0 2.523 4.6 3.077 7.316
           3.541 3.923.582 7.551-.228
           10.942-2.114l3.541-3.594c3.489-3.541 3.595-3.7
           3.912-6.978.652-5.717-2.034-8.212-5.286-11.945-2.773
           -2.832-6.328-5.045-9.99-6.184-1.744-.581-3.753-1.216
           -4.493-1.428-1.474-.491-2.837-.744-3.977-.77zm-27.313
           1.658c-3.404.018-6.08.117-6.555.276-1.533.528-2.062
           3.382-1.005 5.074.635.898.899 3.118 1.11 7.981.533
           14.487-.301 15.86 11.47 15.962 5.834.193 8.347-.667
           11.577-3.964.792-.793.95-1.532.739-2.853-.37-2.273
           -1.004-2.697-4.334-2.697-2.273
           0-2.854.212-3.488 1.216-.582.846-1.27 1.163-2.59
           1.11-1.005-.053-2.644-.105-3.648-.158-1.533-.053-1.956
           -.318-2.59-1.64-1.11-2.536-.58-2.958
           4.282-3.381 2.379-.212 4.81-.424 5.391-.37 1.11 0
           1.956-.74
           2.907-2.485.582-1.057.475-1.48-.687-3.013-1.745-2.273
           -3.594-2.643-7.082-1.427-3.753
           1.374-5.392 1.005-5.392-1.11v-1.585l6.766.37c6.713.316
           6.765.317 7.98-.952.952-1.004
           1.11-1.638.846-2.854-.634-3.013-2.061-3.383-12.104
           -3.488a230.745
           230.745 0 00-3.593-.012zm128.283 1.28c-2.538
           0-3.171.211-4.334 1.48-.74.793-1.692 2.167-2.062
           3.118-1.004 2.38-.58 9.374.053 12.21 1.169 4.44 3.082
           6.94 5.65 8.681 1.49 1.02 3.388.886 4.71.939 1.955 0
           3.012-.37 5.02-1.744 1.375-.951 2.908-2.432 3.384-3.33
           1.216-2.115 2.167-6.343
           2.273-10.096.106-2.854-.053-3.277-1.903-5.55-1.532-1.85
           -2.537-2.59-3.964-2.854-1.11-.212-2.854-.951-3.911
           -1.639-1.48-.898-2.75-1.216-4.916-1.216zm
           -18.158.228a.617.617
           0
           00-.183.036c-.423.158-1.692.423-2.802.582-2.062.264
           -10.572
           1.216-11.629 1.321-.264
           0-1.426-.16-2.484-.318-1.744-.37-2.167-.21-3.594
           1.216-2.802 2.802-1.745 4.546 3.224
           5.391l3.435.583.688 4.333c.37 2.38.846 6.343 1.11
           8.774.317 3.7.581 4.652 1.586 5.445 1.374 1.11 3.118
           1.216 4.492.212 1.005-.74
           1.005-1.164-.264-10.097-.264-2.008-.476-5.074-.529
           -6.712v-3.066h4.071c3.436
           0 4.229-.158 5.286-1.163 1.797-1.691
           1.638-4.28-.318-5.655-.74-.555-1.602-.908-2.089
           -.882zm45.842.102a18.757
           18.757 0 00-2.366.145c-1.48.159-1.797 2.855-1.533
           12.633.159 5.444.477 10.36.635 10.941 1.11 3.806 4.017
           4.652 5.655
           1.64.582-1.058.899-2.591.793-3.807-.211-2.484.159-2.484
           4.229.212 3.37 2.112 5.017 5.379 8.087 5.39 6.502 0
           7.03-3.91.951-7.504-1.004-.635-2.272-1.48-2.748-1.903
           -.899-.74-.899-.846.053-1.638
           1.48-1.322 2.907-6.66
           2.114-8.14-1.057-2.01-2.22-3.014-5.55-4.917-3.736-2.061
           -6.95-3.041-10.32-3.052zm-124.465
           4.426c5.605 1.442 12.438 6.11 12.474 11.893 0
           2.273-.423 2.855-4.493
           6.026-.317.211-1.797.582-3.33.74-2.325.265-2.854.16
           -3.118-.58-.159-.477-.635-1.27-1.005-1.693-.37-.476
           -.793-3.066-.951-6.343-.212-3.065-.476-6.554-.634-7.77
           -.317-2.166-.265-2.273
           1.057-2.273zm34.692.749c-.537-.023-1.18.118-1.974.415
           -2.167.793-2.643
           2.325-1.744 5.338.37 1.216.793 4.546.952 7.453.152
           3.199.42 8.785 4.333 8.774 2.376-.007 3.173-3.78
           2.96-5.496-.158-1.216-.475-3.331-.581-4.811-.529-4.599
           -1.321-8.933-1.955-10.148-.496-.991-1.095-1.486-1.99
           -1.525zm92.658
           1.46c.398 0 1.019.204 1.99.54 2.643.9 4.123 2.115
           4.176 3.384 0 1.85-3.488 2.536-4.757
           1.003-.37-.423-1.004-.793-1.374-.793-.529
           0-.74-.687-.74-2.114
           0-1.454.042-2.019.705-2.02zm-23.58.998c.579.003.781.672
           1.045 2.29.688 4.388-2.537 11.26-4.492
           9.621-3.172-2.643-4.335-5.127-4.335-9.197
           0-2.114.053-2.115 1.797-2.009.951.106 2.009.317
           2.326.529.264.158 1.268-.106 2.114-.582.714-.416
           1.197-.654 1.545-.652z"/>
</svg>
